Building on your foundations: going further with R
…
In some cases, we might want to visualise multiple variables clearly from a dataset. As an example, perhaps we want to look at the difference in both mass and height between humans and droids in a single plot.

Before we do this, lets subset our data to just include humans and droids - since we know there is only a single Ewok in the data, we can drop it.

hd <- starwars %>% subset(species == "Human" | species == "Droid")

What we would like to do is create a plot with two panels - one for boxplots showing height and the other for boxplots showing mass. We can achieve this with a layer known as facet_grid - however it requires our data to be in a slightly different format - we need to merge both our height and mass measurements into a single column. To do this, we will use a function called gather.

# first we select only the variables we are interested in
hd <- hd %>% select(name, height, mass, species)
hd_g <- hd %>% gather(key = "measurement", value = "value", -name, -species)
hd_g

## # A tibble: 80 x 4
##    name               species measurement value
##    <chr>              <chr>   <chr>       <dbl>
##  1 Luke Skywalker     Human   height        172
##  2 C-3PO              Droid   height        167
##  3 R2-D2              Droid   height         96
##  4 Darth Vader        Human   height        202
##  5 Leia Organa        Human   height        150
##  6 Owen Lars          Human   height        178
##  7 Beru Whitesun lars Human   height        165
##  8 R5-D4              Droid   height         97
##  9 Biggs Darklighter  Human   height        183
## 10 Obi-Wan Kenobi     Human   height        182
## #  with 70 more rows
…
